%TF.GenerationSoftware,KiCad,Pcbnew,(5.99.0-6807-gfbe298bd5)*%
%TF.CreationDate,2020-11-09T04:13:07+01:00*%
%TF.ProjectId,stm32f1_fabv1,73746d33-3266-4315-9f66-616276312e6b,rev?*%
%TF.SameCoordinates,Original*%
%TF.FileFunction,Legend,Top*%
%TF.FilePolarity,Positive*%
%FSLAX46Y46*%
G04 Gerber Fmt 4.6, Leading zero omitted, Abs format (unit mm)*
G04 Created by KiCad (PCBNEW (5.99.0-6807-gfbe298bd5)) date 2020-11-09 04:13:07*
%MOMM*%
%LPD*%
G01*
G04 APERTURE LIST*
%ADD10C,0.150000*%
%ADD11C,0.120000*%
G04 APERTURE END LIST*
D10*
%TO.C,J7*%
X108997809Y-98242380D02*
X108997809Y-97242380D01*
X109426380Y-97337619D02*
X109474000Y-97290000D01*
X109569238Y-97242380D01*
X109807333Y-97242380D01*
X109902571Y-97290000D01*
X109950190Y-97337619D01*
X109997809Y-97432857D01*
X109997809Y-97528095D01*
X109950190Y-97670952D01*
X109378761Y-98242380D01*
X109997809Y-98242380D01*
%TO.C,J6*%
X109251809Y-90114380D02*
X109251809Y-89114380D01*
X110251809Y-90114380D02*
X109680380Y-90114380D01*
X109966095Y-90114380D02*
X109966095Y-89114380D01*
X109870857Y-89257238D01*
X109775619Y-89352476D01*
X109680380Y-89400095D01*
%TO.C,J4*%
X86042571Y-87590380D02*
X86233047Y-87590380D01*
X86328285Y-87638000D01*
X86423523Y-87733238D01*
X86471142Y-87923714D01*
X86471142Y-88257047D01*
X86423523Y-88447523D01*
X86328285Y-88542761D01*
X86233047Y-88590380D01*
X86042571Y-88590380D01*
X85947333Y-88542761D01*
X85852095Y-88447523D01*
X85804476Y-88257047D01*
X85804476Y-87923714D01*
X85852095Y-87733238D01*
X85947333Y-87638000D01*
X86042571Y-87590380D01*
X86852095Y-87685619D02*
X86899714Y-87638000D01*
X86994952Y-87590380D01*
X87233047Y-87590380D01*
X87328285Y-87638000D01*
X87375904Y-87685619D01*
X87423523Y-87780857D01*
X87423523Y-87876095D01*
X87375904Y-88018952D01*
X86804476Y-88590380D01*
X87423523Y-88590380D01*
%TO.C,J3*%
X109918571Y-57110380D02*
X110109047Y-57110380D01*
X110204285Y-57158000D01*
X110299523Y-57253238D01*
X110347142Y-57443714D01*
X110347142Y-57777047D01*
X110299523Y-57967523D01*
X110204285Y-58062761D01*
X110109047Y-58110380D01*
X109918571Y-58110380D01*
X109823333Y-58062761D01*
X109728095Y-57967523D01*
X109680476Y-57777047D01*
X109680476Y-57443714D01*
X109728095Y-57253238D01*
X109823333Y-57158000D01*
X109918571Y-57110380D01*
X111299523Y-58110380D02*
X110728095Y-58110380D01*
X111013809Y-58110380D02*
X111013809Y-57110380D01*
X110918571Y-57253238D01*
X110823333Y-57348476D01*
X110728095Y-57396095D01*
%TO.C,SW2*%
X112736380Y-67518380D02*
X112403047Y-67042190D01*
X112164952Y-67518380D02*
X112164952Y-66518380D01*
X112545904Y-66518380D01*
X112641142Y-66566000D01*
X112688761Y-66613619D01*
X112736380Y-66708857D01*
X112736380Y-66851714D01*
X112688761Y-66946952D01*
X112641142Y-66994571D01*
X112545904Y-67042190D01*
X112164952Y-67042190D01*
X113117333Y-67470761D02*
X113260190Y-67518380D01*
X113498285Y-67518380D01*
X113593523Y-67470761D01*
X113641142Y-67423142D01*
X113688761Y-67327904D01*
X113688761Y-67232666D01*
X113641142Y-67137428D01*
X113593523Y-67089809D01*
X113498285Y-67042190D01*
X113307809Y-66994571D01*
X113212571Y-66946952D01*
X113164952Y-66899333D01*
X113117333Y-66804095D01*
X113117333Y-66708857D01*
X113164952Y-66613619D01*
X113212571Y-66566000D01*
X113307809Y-66518380D01*
X113545904Y-66518380D01*
X113688761Y-66566000D01*
X113974476Y-66518380D02*
X114545904Y-66518380D01*
X114260190Y-67518380D02*
X114260190Y-66518380D01*
%TO.C,J2*%
X153281142Y-63857142D02*
X153233523Y-63904761D01*
X153090666Y-63952380D01*
X152995428Y-63952380D01*
X152852571Y-63904761D01*
X152757333Y-63809523D01*
X152709714Y-63714285D01*
X152662095Y-63523809D01*
X152662095Y-63380952D01*
X152709714Y-63190476D01*
X152757333Y-63095238D01*
X152852571Y-63000000D01*
X152995428Y-62952380D01*
X153090666Y-62952380D01*
X153233523Y-63000000D01*
X153281142Y-63047619D01*
X153662095Y-63666666D02*
X154138285Y-63666666D01*
X153566857Y-63952380D02*
X153900190Y-62952380D01*
X154233523Y-63952380D01*
X154566857Y-63952380D02*
X154566857Y-62952380D01*
X155138285Y-63952380D01*
X155138285Y-62952380D01*
%TO.C,F2*%
X121468571Y-61547333D02*
X121468571Y-61880666D01*
X121992380Y-61880666D02*
X120992380Y-61880666D01*
X120992380Y-61404476D01*
X121087619Y-61071142D02*
X121040000Y-61023523D01*
X120992380Y-60928285D01*
X120992380Y-60690190D01*
X121040000Y-60594952D01*
X121087619Y-60547333D01*
X121182857Y-60499714D01*
X121278095Y-60499714D01*
X121420952Y-60547333D01*
X121992380Y-61118761D01*
X121992380Y-60499714D01*
%TO.C,F1*%
X147290571Y-85677333D02*
X147290571Y-86010666D01*
X147814380Y-86010666D02*
X146814380Y-86010666D01*
X146814380Y-85534476D01*
X147814380Y-84629714D02*
X147814380Y-85201142D01*
X147814380Y-84915428D02*
X146814380Y-84915428D01*
X146957238Y-85010666D01*
X147052476Y-85105904D01*
X147100095Y-85201142D01*
%TO.C,U5*%
X94488095Y-83838380D02*
X94488095Y-84647904D01*
X94535714Y-84743142D01*
X94583333Y-84790761D01*
X94678571Y-84838380D01*
X94869047Y-84838380D01*
X94964285Y-84790761D01*
X95011904Y-84743142D01*
X95059523Y-84647904D01*
X95059523Y-83838380D01*
X96011904Y-83838380D02*
X95535714Y-83838380D01*
X95488095Y-84314571D01*
X95535714Y-84266952D01*
X95630952Y-84219333D01*
X95869047Y-84219333D01*
X95964285Y-84266952D01*
X96011904Y-84314571D01*
X96059523Y-84409809D01*
X96059523Y-84647904D01*
X96011904Y-84743142D01*
X95964285Y-84790761D01*
X95869047Y-84838380D01*
X95630952Y-84838380D01*
X95535714Y-84790761D01*
X95488095Y-84743142D01*
%TO.C,U4*%
X90326380Y-64007904D02*
X91135904Y-64007904D01*
X91231142Y-63960285D01*
X91278761Y-63912666D01*
X91326380Y-63817428D01*
X91326380Y-63626952D01*
X91278761Y-63531714D01*
X91231142Y-63484095D01*
X91135904Y-63436476D01*
X90326380Y-63436476D01*
X90659714Y-62531714D02*
X91326380Y-62531714D01*
X90278761Y-62769809D02*
X90993047Y-63007904D01*
X90993047Y-62388857D01*
%TO.C,U3*%
X124968095Y-93178380D02*
X124968095Y-93987904D01*
X125015714Y-94083142D01*
X125063333Y-94130761D01*
X125158571Y-94178380D01*
X125349047Y-94178380D01*
X125444285Y-94130761D01*
X125491904Y-94083142D01*
X125539523Y-93987904D01*
X125539523Y-93178380D01*
X125920476Y-93178380D02*
X126539523Y-93178380D01*
X126206190Y-93559333D01*
X126349047Y-93559333D01*
X126444285Y-93606952D01*
X126491904Y-93654571D01*
X126539523Y-93749809D01*
X126539523Y-93987904D01*
X126491904Y-94083142D01*
X126444285Y-94130761D01*
X126349047Y-94178380D01*
X126063333Y-94178380D01*
X125968095Y-94130761D01*
X125920476Y-94083142D01*
%TO.C,U2*%
X116586095Y-78446380D02*
X116586095Y-79255904D01*
X116633714Y-79351142D01*
X116681333Y-79398761D01*
X116776571Y-79446380D01*
X116967047Y-79446380D01*
X117062285Y-79398761D01*
X117109904Y-79351142D01*
X117157523Y-79255904D01*
X117157523Y-78446380D01*
X117586095Y-78541619D02*
X117633714Y-78494000D01*
X117728952Y-78446380D01*
X117967047Y-78446380D01*
X118062285Y-78494000D01*
X118109904Y-78541619D01*
X118157523Y-78636857D01*
X118157523Y-78732095D01*
X118109904Y-78874952D01*
X117538476Y-79446380D01*
X118157523Y-79446380D01*
%TO.C,U1*%
X144591095Y-87619380D02*
X144591095Y-88428904D01*
X144638714Y-88524142D01*
X144686333Y-88571761D01*
X144781571Y-88619380D01*
X144972047Y-88619380D01*
X145067285Y-88571761D01*
X145114904Y-88524142D01*
X145162523Y-88428904D01*
X145162523Y-87619380D01*
X146162523Y-88619380D02*
X145591095Y-88619380D01*
X145876809Y-88619380D02*
X145876809Y-87619380D01*
X145781571Y-87762238D01*
X145686333Y-87857476D01*
X145591095Y-87905095D01*
%TO.C,TP3*%
X126754095Y-83018380D02*
X127325523Y-83018380D01*
X127039809Y-84018380D02*
X127039809Y-83018380D01*
X127658857Y-84018380D02*
X127658857Y-83018380D01*
X128039809Y-83018380D01*
X128135047Y-83066000D01*
X128182666Y-83113619D01*
X128230285Y-83208857D01*
X128230285Y-83351714D01*
X128182666Y-83446952D01*
X128135047Y-83494571D01*
X128039809Y-83542190D01*
X127658857Y-83542190D01*
X128563619Y-83018380D02*
X129182666Y-83018380D01*
X128849333Y-83399333D01*
X128992190Y-83399333D01*
X129087428Y-83446952D01*
X129135047Y-83494571D01*
X129182666Y-83589809D01*
X129182666Y-83827904D01*
X129135047Y-83923142D01*
X129087428Y-83970761D01*
X128992190Y-84018380D01*
X128706476Y-84018380D01*
X128611238Y-83970761D01*
X128563619Y-83923142D01*
%TO.C,TP2*%
X132342095Y-94150380D02*
X132913523Y-94150380D01*
X132627809Y-95150380D02*
X132627809Y-94150380D01*
X133246857Y-95150380D02*
X133246857Y-94150380D01*
X133627809Y-94150380D01*
X133723047Y-94198000D01*
X133770666Y-94245619D01*
X133818285Y-94340857D01*
X133818285Y-94483714D01*
X133770666Y-94578952D01*
X133723047Y-94626571D01*
X133627809Y-94674190D01*
X133246857Y-94674190D01*
X134199238Y-94245619D02*
X134246857Y-94198000D01*
X134342095Y-94150380D01*
X134580190Y-94150380D01*
X134675428Y-94198000D01*
X134723047Y-94245619D01*
X134770666Y-94340857D01*
X134770666Y-94436095D01*
X134723047Y-94578952D01*
X134151619Y-95150380D01*
X134770666Y-95150380D01*
%TO.C,TP1*%
X136914095Y-94150380D02*
X137485523Y-94150380D01*
X137199809Y-95150380D02*
X137199809Y-94150380D01*
X137818857Y-95150380D02*
X137818857Y-94150380D01*
X138199809Y-94150380D01*
X138295047Y-94198000D01*
X138342666Y-94245619D01*
X138390285Y-94340857D01*
X138390285Y-94483714D01*
X138342666Y-94578952D01*
X138295047Y-94626571D01*
X138199809Y-94674190D01*
X137818857Y-94674190D01*
X139342666Y-95150380D02*
X138771238Y-95150380D01*
X139056952Y-95150380D02*
X139056952Y-94150380D01*
X138961714Y-94293238D01*
X138866476Y-94388476D01*
X138771238Y-94436095D01*
%TO.C,SW1*%
X112966666Y-58824761D02*
X113109523Y-58872380D01*
X113347619Y-58872380D01*
X113442857Y-58824761D01*
X113490476Y-58777142D01*
X113538095Y-58681904D01*
X113538095Y-58586666D01*
X113490476Y-58491428D01*
X113442857Y-58443809D01*
X113347619Y-58396190D01*
X113157142Y-58348571D01*
X113061904Y-58300952D01*
X113014285Y-58253333D01*
X112966666Y-58158095D01*
X112966666Y-58062857D01*
X113014285Y-57967619D01*
X113061904Y-57920000D01*
X113157142Y-57872380D01*
X113395238Y-57872380D01*
X113538095Y-57920000D01*
X113871428Y-57872380D02*
X114109523Y-58872380D01*
X114300000Y-58158095D01*
X114490476Y-58872380D01*
X114728571Y-57872380D01*
X115633333Y-58872380D02*
X115061904Y-58872380D01*
X115347619Y-58872380D02*
X115347619Y-57872380D01*
X115252380Y-58015238D01*
X115157142Y-58110476D01*
X115061904Y-58158095D01*
%TO.C,R13*%
X127834380Y-79636857D02*
X127358190Y-79970190D01*
X127834380Y-80208285D02*
X126834380Y-80208285D01*
X126834380Y-79827333D01*
X126882000Y-79732095D01*
X126929619Y-79684476D01*
X127024857Y-79636857D01*
X127167714Y-79636857D01*
X127262952Y-79684476D01*
X127310571Y-79732095D01*
X127358190Y-79827333D01*
X127358190Y-80208285D01*
X127834380Y-78684476D02*
X127834380Y-79255904D01*
X127834380Y-78970190D02*
X126834380Y-78970190D01*
X126977238Y-79065428D01*
X127072476Y-79160666D01*
X127120095Y-79255904D01*
X126834380Y-78351142D02*
X126834380Y-77732095D01*
X127215333Y-78065428D01*
X127215333Y-77922571D01*
X127262952Y-77827333D01*
X127310571Y-77779714D01*
X127405809Y-77732095D01*
X127643904Y-77732095D01*
X127739142Y-77779714D01*
X127786761Y-77827333D01*
X127834380Y-77922571D01*
X127834380Y-78208285D01*
X127786761Y-78303523D01*
X127739142Y-78351142D01*
%TO.C,R12*%
X122626380Y-89034857D02*
X122150190Y-89368190D01*
X122626380Y-89606285D02*
X121626380Y-89606285D01*
X121626380Y-89225333D01*
X121674000Y-89130095D01*
X121721619Y-89082476D01*
X121816857Y-89034857D01*
X121959714Y-89034857D01*
X122054952Y-89082476D01*
X122102571Y-89130095D01*
X122150190Y-89225333D01*
X122150190Y-89606285D01*
X122626380Y-88082476D02*
X122626380Y-88653904D01*
X122626380Y-88368190D02*
X121626380Y-88368190D01*
X121769238Y-88463428D01*
X121864476Y-88558666D01*
X121912095Y-88653904D01*
X121721619Y-87701523D02*
X121674000Y-87653904D01*
X121626380Y-87558666D01*
X121626380Y-87320571D01*
X121674000Y-87225333D01*
X121721619Y-87177714D01*
X121816857Y-87130095D01*
X121912095Y-87130095D01*
X122054952Y-87177714D01*
X122626380Y-87749142D01*
X122626380Y-87130095D01*
%TO.C,R11*%
X122880380Y-92082857D02*
X122404190Y-92416190D01*
X122880380Y-92654285D02*
X121880380Y-92654285D01*
X121880380Y-92273333D01*
X121928000Y-92178095D01*
X121975619Y-92130476D01*
X122070857Y-92082857D01*
X122213714Y-92082857D01*
X122308952Y-92130476D01*
X122356571Y-92178095D01*
X122404190Y-92273333D01*
X122404190Y-92654285D01*
X122880380Y-91130476D02*
X122880380Y-91701904D01*
X122880380Y-91416190D02*
X121880380Y-91416190D01*
X122023238Y-91511428D01*
X122118476Y-91606666D01*
X122166095Y-91701904D01*
X122880380Y-90178095D02*
X122880380Y-90749523D01*
X122880380Y-90463809D02*
X121880380Y-90463809D01*
X122023238Y-90559047D01*
X122118476Y-90654285D01*
X122166095Y-90749523D01*
%TO.C,L2*%
X133945333Y-84062380D02*
X133469142Y-84062380D01*
X133469142Y-83062380D01*
X134231047Y-83157619D02*
X134278666Y-83110000D01*
X134373904Y-83062380D01*
X134612000Y-83062380D01*
X134707238Y-83110000D01*
X134754857Y-83157619D01*
X134802476Y-83252857D01*
X134802476Y-83348095D01*
X134754857Y-83490952D01*
X134183428Y-84062380D01*
X134802476Y-84062380D01*
%TO.C,L1*%
X104592380Y-72048666D02*
X104592380Y-72524857D01*
X103592380Y-72524857D01*
X104592380Y-71191523D02*
X104592380Y-71762952D01*
X104592380Y-71477238D02*
X103592380Y-71477238D01*
X103735238Y-71572476D01*
X103830476Y-71667714D01*
X103878095Y-71762952D01*
%TO.C,J5*%
X137334666Y-63358380D02*
X137334666Y-64072666D01*
X137287047Y-64215523D01*
X137191809Y-64310761D01*
X137048952Y-64358380D01*
X136953714Y-64358380D01*
X138287047Y-63358380D02*
X137810857Y-63358380D01*
X137763238Y-63834571D01*
X137810857Y-63786952D01*
X137906095Y-63739333D01*
X138144190Y-63739333D01*
X138239428Y-63786952D01*
X138287047Y-63834571D01*
X138334666Y-63929809D01*
X138334666Y-64167904D01*
X138287047Y-64263142D01*
X138239428Y-64310761D01*
X138144190Y-64358380D01*
X137906095Y-64358380D01*
X137810857Y-64310761D01*
X137763238Y-64263142D01*
X134620380Y-49958380D02*
X134620380Y-48958380D01*
X135001333Y-48958380D01*
X135096571Y-49006000D01*
X135144190Y-49053619D01*
X135191809Y-49148857D01*
X135191809Y-49291714D01*
X135144190Y-49386952D01*
X135096571Y-49434571D01*
X135001333Y-49482190D01*
X134620380Y-49482190D01*
X135763238Y-49958380D02*
X135668000Y-49910761D01*
X135620380Y-49863142D01*
X135572761Y-49767904D01*
X135572761Y-49482190D01*
X135620380Y-49386952D01*
X135668000Y-49339333D01*
X135763238Y-49291714D01*
X135906095Y-49291714D01*
X136001333Y-49339333D01*
X136048952Y-49386952D01*
X136096571Y-49482190D01*
X136096571Y-49767904D01*
X136048952Y-49863142D01*
X136001333Y-49910761D01*
X135906095Y-49958380D01*
X135763238Y-49958380D01*
X136429904Y-49291714D02*
X136620380Y-49958380D01*
X136810857Y-49482190D01*
X137001333Y-49958380D01*
X137191809Y-49291714D01*
X137953714Y-49910761D02*
X137858476Y-49958380D01*
X137668000Y-49958380D01*
X137572761Y-49910761D01*
X137525142Y-49815523D01*
X137525142Y-49434571D01*
X137572761Y-49339333D01*
X137668000Y-49291714D01*
X137858476Y-49291714D01*
X137953714Y-49339333D01*
X138001333Y-49434571D01*
X138001333Y-49529809D01*
X137525142Y-49625047D01*
X138429904Y-49958380D02*
X138429904Y-49291714D01*
X138429904Y-49482190D02*
X138477523Y-49386952D01*
X138525142Y-49339333D01*
X138620380Y-49291714D01*
X138715619Y-49291714D01*
X139810857Y-49958380D02*
X139810857Y-48958380D01*
X140287047Y-49291714D02*
X140287047Y-49958380D01*
X140287047Y-49386952D02*
X140334666Y-49339333D01*
X140429904Y-49291714D01*
X140572761Y-49291714D01*
X140668000Y-49339333D01*
X140715619Y-49434571D01*
X140715619Y-49958380D01*
%TO.C,J1*%
X121578857Y-98956761D02*
X121721714Y-99004380D01*
X121959809Y-99004380D01*
X122055047Y-98956761D01*
X122102666Y-98909142D01*
X122150285Y-98813904D01*
X122150285Y-98718666D01*
X122102666Y-98623428D01*
X122055047Y-98575809D01*
X121959809Y-98528190D01*
X121769333Y-98480571D01*
X121674095Y-98432952D01*
X121626476Y-98385333D01*
X121578857Y-98290095D01*
X121578857Y-98194857D01*
X121626476Y-98099619D01*
X121674095Y-98052000D01*
X121769333Y-98004380D01*
X122007428Y-98004380D01*
X122150285Y-98052000D01*
X122483619Y-98004380D02*
X122721714Y-99004380D01*
X122912190Y-98290095D01*
X123102666Y-99004380D01*
X123340761Y-98004380D01*
X123721714Y-99004380D02*
X123721714Y-98004380D01*
X123959809Y-98004380D01*
X124102666Y-98052000D01*
X124197904Y-98147238D01*
X124245523Y-98242476D01*
X124293142Y-98432952D01*
X124293142Y-98575809D01*
X124245523Y-98766285D01*
X124197904Y-98861523D01*
X124102666Y-98956761D01*
X123959809Y-99004380D01*
X123721714Y-99004380D01*
%TO.C,FB1*%
X140644666Y-88226571D02*
X140311333Y-88226571D01*
X140311333Y-88750380D02*
X140311333Y-87750380D01*
X140787523Y-87750380D01*
X141501809Y-88226571D02*
X141644666Y-88274190D01*
X141692285Y-88321809D01*
X141739904Y-88417047D01*
X141739904Y-88559904D01*
X141692285Y-88655142D01*
X141644666Y-88702761D01*
X141549428Y-88750380D01*
X141168476Y-88750380D01*
X141168476Y-87750380D01*
X141501809Y-87750380D01*
X141597047Y-87798000D01*
X141644666Y-87845619D01*
X141692285Y-87940857D01*
X141692285Y-88036095D01*
X141644666Y-88131333D01*
X141597047Y-88178952D01*
X141501809Y-88226571D01*
X141168476Y-88226571D01*
X142692285Y-88750380D02*
X142120857Y-88750380D01*
X142406571Y-88750380D02*
X142406571Y-87750380D01*
X142311333Y-87893238D01*
X142216095Y-87988476D01*
X142120857Y-88036095D01*
%TO.C,D9*%
X142652380Y-82780095D02*
X141652380Y-82780095D01*
X141652380Y-82542000D01*
X141700000Y-82399142D01*
X141795238Y-82303904D01*
X141890476Y-82256285D01*
X142080952Y-82208666D01*
X142223809Y-82208666D01*
X142414285Y-82256285D01*
X142509523Y-82303904D01*
X142604761Y-82399142D01*
X142652380Y-82542000D01*
X142652380Y-82780095D01*
X142652380Y-81732476D02*
X142652380Y-81542000D01*
X142604761Y-81446761D01*
X142557142Y-81399142D01*
X142414285Y-81303904D01*
X142223809Y-81256285D01*
X141842857Y-81256285D01*
X141747619Y-81303904D01*
X141700000Y-81351523D01*
X141652380Y-81446761D01*
X141652380Y-81637238D01*
X141700000Y-81732476D01*
X141747619Y-81780095D01*
X141842857Y-81827714D01*
X142080952Y-81827714D01*
X142176190Y-81780095D01*
X142223809Y-81732476D01*
X142271428Y-81637238D01*
X142271428Y-81446761D01*
X142223809Y-81351523D01*
X142176190Y-81303904D01*
X142080952Y-81256285D01*
%TO.C,D8*%
X134516952Y-74271142D02*
X134469333Y-74318761D01*
X134326476Y-74366380D01*
X134231238Y-74366380D01*
X134088380Y-74318761D01*
X133993142Y-74223523D01*
X133945523Y-74128285D01*
X133897904Y-73937809D01*
X133897904Y-73794952D01*
X133945523Y-73604476D01*
X133993142Y-73509238D01*
X134088380Y-73414000D01*
X134231238Y-73366380D01*
X134326476Y-73366380D01*
X134469333Y-73414000D01*
X134516952Y-73461619D01*
X134897904Y-74080666D02*
X135374095Y-74080666D01*
X134802666Y-74366380D02*
X135136000Y-73366380D01*
X135469333Y-74366380D01*
X135802666Y-74366380D02*
X135802666Y-73366380D01*
X136374095Y-74366380D01*
X136374095Y-73366380D01*
X137326476Y-73366380D02*
X136850285Y-73366380D01*
X136802666Y-73842571D01*
X136850285Y-73794952D01*
X136945523Y-73747333D01*
X137183619Y-73747333D01*
X137278857Y-73794952D01*
X137326476Y-73842571D01*
X137374095Y-73937809D01*
X137374095Y-74175904D01*
X137326476Y-74271142D01*
X137278857Y-74318761D01*
X137183619Y-74366380D01*
X136945523Y-74366380D01*
X136850285Y-74318761D01*
X136802666Y-74271142D01*
%TO.C,D7*%
X134548761Y-72493142D02*
X134501142Y-72540761D01*
X134358285Y-72588380D01*
X134263047Y-72588380D01*
X134120190Y-72540761D01*
X134024952Y-72445523D01*
X133977333Y-72350285D01*
X133929714Y-72159809D01*
X133929714Y-72016952D01*
X133977333Y-71826476D01*
X134024952Y-71731238D01*
X134120190Y-71636000D01*
X134263047Y-71588380D01*
X134358285Y-71588380D01*
X134501142Y-71636000D01*
X134548761Y-71683619D01*
X134929714Y-72302666D02*
X135405904Y-72302666D01*
X134834476Y-72588380D02*
X135167809Y-71588380D01*
X135501142Y-72588380D01*
X135834476Y-72588380D02*
X135834476Y-71588380D01*
X136405904Y-72588380D01*
X136405904Y-71588380D01*
X136834476Y-71683619D02*
X136882095Y-71636000D01*
X136977333Y-71588380D01*
X137215428Y-71588380D01*
X137310666Y-71636000D01*
X137358285Y-71683619D01*
X137405904Y-71778857D01*
X137405904Y-71874095D01*
X137358285Y-72016952D01*
X136786857Y-72588380D01*
X137405904Y-72588380D01*
X137977333Y-72016952D02*
X137882095Y-71969333D01*
X137834476Y-71921714D01*
X137786857Y-71826476D01*
X137786857Y-71778857D01*
X137834476Y-71683619D01*
X137882095Y-71636000D01*
X137977333Y-71588380D01*
X138167809Y-71588380D01*
X138263047Y-71636000D01*
X138310666Y-71683619D01*
X138358285Y-71778857D01*
X138358285Y-71826476D01*
X138310666Y-71921714D01*
X138263047Y-71969333D01*
X138167809Y-72016952D01*
X137977333Y-72016952D01*
X137882095Y-72064571D01*
X137834476Y-72112190D01*
X137786857Y-72207428D01*
X137786857Y-72397904D01*
X137834476Y-72493142D01*
X137882095Y-72540761D01*
X137977333Y-72588380D01*
X138167809Y-72588380D01*
X138263047Y-72540761D01*
X138310666Y-72493142D01*
X138358285Y-72397904D01*
X138358285Y-72207428D01*
X138310666Y-72112190D01*
X138263047Y-72064571D01*
X138167809Y-72016952D01*
%TO.C,D6*%
X134548761Y-76049142D02*
X134501142Y-76096761D01*
X134358285Y-76144380D01*
X134263047Y-76144380D01*
X134120190Y-76096761D01*
X134024952Y-76001523D01*
X133977333Y-75906285D01*
X133929714Y-75715809D01*
X133929714Y-75572952D01*
X133977333Y-75382476D01*
X134024952Y-75287238D01*
X134120190Y-75192000D01*
X134263047Y-75144380D01*
X134358285Y-75144380D01*
X134501142Y-75192000D01*
X134548761Y-75239619D01*
X134929714Y-75858666D02*
X135405904Y-75858666D01*
X134834476Y-76144380D02*
X135167809Y-75144380D01*
X135501142Y-76144380D01*
X135834476Y-76144380D02*
X135834476Y-75144380D01*
X136405904Y-76144380D01*
X136405904Y-75144380D01*
X137405904Y-76144380D02*
X136834476Y-76144380D01*
X137120190Y-76144380D02*
X137120190Y-75144380D01*
X137024952Y-75287238D01*
X136929714Y-75382476D01*
X136834476Y-75430095D01*
X137786857Y-75239619D02*
X137834476Y-75192000D01*
X137929714Y-75144380D01*
X138167809Y-75144380D01*
X138263047Y-75192000D01*
X138310666Y-75239619D01*
X138358285Y-75334857D01*
X138358285Y-75430095D01*
X138310666Y-75572952D01*
X137739238Y-76144380D01*
X138358285Y-76144380D01*
%TO.C,D5*%
X125953880Y-79478095D02*
X124953880Y-79478095D01*
X124953880Y-79240000D01*
X125001500Y-79097142D01*
X125096738Y-79001904D01*
X125191976Y-78954285D01*
X125382452Y-78906666D01*
X125525309Y-78906666D01*
X125715785Y-78954285D01*
X125811023Y-79001904D01*
X125906261Y-79097142D01*
X125953880Y-79240000D01*
X125953880Y-79478095D01*
X124953880Y-78001904D02*
X124953880Y-78478095D01*
X125430071Y-78525714D01*
X125382452Y-78478095D01*
X125334833Y-78382857D01*
X125334833Y-78144761D01*
X125382452Y-78049523D01*
X125430071Y-78001904D01*
X125525309Y-77954285D01*
X125763404Y-77954285D01*
X125858642Y-78001904D01*
X125906261Y-78049523D01*
X125953880Y-78144761D01*
X125953880Y-78382857D01*
X125906261Y-78478095D01*
X125858642Y-78525714D01*
%TO.C,D4*%
X137318761Y-67254380D02*
X136985428Y-66778190D01*
X136747333Y-67254380D02*
X136747333Y-66254380D01*
X137128285Y-66254380D01*
X137223523Y-66302000D01*
X137271142Y-66349619D01*
X137318761Y-66444857D01*
X137318761Y-66587714D01*
X137271142Y-66682952D01*
X137223523Y-66730571D01*
X137128285Y-66778190D01*
X136747333Y-66778190D01*
X137652095Y-67254380D02*
X138175904Y-66587714D01*
X137652095Y-66587714D02*
X138175904Y-67254380D01*
%TO.C,D3*%
X136723523Y-68032380D02*
X137294952Y-68032380D01*
X137009238Y-69032380D02*
X137009238Y-68032380D01*
X137533047Y-69032380D02*
X138056857Y-68365714D01*
X137533047Y-68365714D02*
X138056857Y-69032380D01*
%TO.C,D2*%
X125953880Y-81256095D02*
X124953880Y-81256095D01*
X124953880Y-81018000D01*
X125001500Y-80875142D01*
X125096738Y-80779904D01*
X125191976Y-80732285D01*
X125382452Y-80684666D01*
X125525309Y-80684666D01*
X125715785Y-80732285D01*
X125811023Y-80779904D01*
X125906261Y-80875142D01*
X125953880Y-81018000D01*
X125953880Y-81256095D01*
X125049119Y-80303714D02*
X125001500Y-80256095D01*
X124953880Y-80160857D01*
X124953880Y-79922761D01*
X125001500Y-79827523D01*
X125049119Y-79779904D01*
X125144357Y-79732285D01*
X125239595Y-79732285D01*
X125382452Y-79779904D01*
X125953880Y-80351333D01*
X125953880Y-79732285D01*
%TO.C,D1*%
X133882095Y-70762761D02*
X134024952Y-70810380D01*
X134263047Y-70810380D01*
X134358285Y-70762761D01*
X134405904Y-70715142D01*
X134453523Y-70619904D01*
X134453523Y-70524666D01*
X134405904Y-70429428D01*
X134358285Y-70381809D01*
X134263047Y-70334190D01*
X134072571Y-70286571D01*
X133977333Y-70238952D01*
X133929714Y-70191333D01*
X133882095Y-70096095D01*
X133882095Y-70000857D01*
X133929714Y-69905619D01*
X133977333Y-69858000D01*
X134072571Y-69810380D01*
X134310666Y-69810380D01*
X134453523Y-69858000D01*
X134786857Y-70143714D02*
X135024952Y-70810380D01*
X135263047Y-70143714D02*
X135024952Y-70810380D01*
X134929714Y-71048476D01*
X134882095Y-71096095D01*
X134786857Y-71143714D01*
X135596380Y-70762761D02*
X135691619Y-70810380D01*
X135882095Y-70810380D01*
X135977333Y-70762761D01*
X136024952Y-70667523D01*
X136024952Y-70619904D01*
X135977333Y-70524666D01*
X135882095Y-70477047D01*
X135739238Y-70477047D01*
X135644000Y-70429428D01*
X135596380Y-70334190D01*
X135596380Y-70286571D01*
X135644000Y-70191333D01*
X135739238Y-70143714D01*
X135882095Y-70143714D01*
X135977333Y-70191333D01*
X136358285Y-69810380D02*
X136977333Y-69810380D01*
X136644000Y-70191333D01*
X136786857Y-70191333D01*
X136882095Y-70238952D01*
X136929714Y-70286571D01*
X136977333Y-70381809D01*
X136977333Y-70619904D01*
X136929714Y-70715142D01*
X136882095Y-70762761D01*
X136786857Y-70810380D01*
X136501142Y-70810380D01*
X136405904Y-70762761D01*
X136358285Y-70715142D01*
X137405904Y-70715142D02*
X137453523Y-70762761D01*
X137405904Y-70810380D01*
X137358285Y-70762761D01*
X137405904Y-70715142D01*
X137405904Y-70810380D01*
X137786857Y-69810380D02*
X138405904Y-69810380D01*
X138072571Y-70191333D01*
X138215428Y-70191333D01*
X138310666Y-70238952D01*
X138358285Y-70286571D01*
X138405904Y-70381809D01*
X138405904Y-70619904D01*
X138358285Y-70715142D01*
X138310666Y-70762761D01*
X138215428Y-70810380D01*
X137929714Y-70810380D01*
X137834476Y-70762761D01*
X137786857Y-70715142D01*
%TO.C,C13*%
X124833142Y-64515142D02*
X124785523Y-64562761D01*
X124642666Y-64610380D01*
X124547428Y-64610380D01*
X124404571Y-64562761D01*
X124309333Y-64467523D01*
X124261714Y-64372285D01*
X124214095Y-64181809D01*
X124214095Y-64038952D01*
X124261714Y-63848476D01*
X124309333Y-63753238D01*
X124404571Y-63658000D01*
X124547428Y-63610380D01*
X124642666Y-63610380D01*
X124785523Y-63658000D01*
X124833142Y-63705619D01*
X125785523Y-64610380D02*
X125214095Y-64610380D01*
X125499809Y-64610380D02*
X125499809Y-63610380D01*
X125404571Y-63753238D01*
X125309333Y-63848476D01*
X125214095Y-63896095D01*
X126118857Y-63610380D02*
X126737904Y-63610380D01*
X126404571Y-63991333D01*
X126547428Y-63991333D01*
X126642666Y-64038952D01*
X126690285Y-64086571D01*
X126737904Y-64181809D01*
X126737904Y-64419904D01*
X126690285Y-64515142D01*
X126642666Y-64562761D01*
X126547428Y-64610380D01*
X126261714Y-64610380D01*
X126166476Y-64562761D01*
X126118857Y-64515142D01*
%TO.C,C4*%
X102973142Y-81474666D02*
X103020761Y-81522285D01*
X103068380Y-81665142D01*
X103068380Y-81760380D01*
X103020761Y-81903238D01*
X102925523Y-81998476D01*
X102830285Y-82046095D01*
X102639809Y-82093714D01*
X102496952Y-82093714D01*
X102306476Y-82046095D01*
X102211238Y-81998476D01*
X102116000Y-81903238D01*
X102068380Y-81760380D01*
X102068380Y-81665142D01*
X102116000Y-81522285D01*
X102163619Y-81474666D01*
X102401714Y-80617523D02*
X103068380Y-80617523D01*
X102020761Y-80855619D02*
X102735047Y-81093714D01*
X102735047Y-80474666D01*
D11*
%TO.C,J7*%
X92650000Y-99120000D02*
X92650000Y-97790000D01*
X93980000Y-99120000D02*
X92650000Y-99120000D01*
X95250000Y-99120000D02*
X95250000Y-96460000D01*
X95250000Y-96460000D02*
X108010000Y-96460000D01*
X95250000Y-99120000D02*
X108010000Y-99120000D01*
X108010000Y-99120000D02*
X108010000Y-96460000D01*
%TO.C,J6*%
X92650000Y-90992000D02*
X92650000Y-89662000D01*
X93980000Y-90992000D02*
X92650000Y-90992000D01*
X95250000Y-90992000D02*
X95250000Y-88332000D01*
X95250000Y-88332000D02*
X108010000Y-88332000D01*
X95250000Y-90992000D02*
X108010000Y-90992000D01*
X108010000Y-90992000D02*
X108010000Y-88332000D01*
%TO.C,J4*%
X87944000Y-86674000D02*
X86614000Y-86674000D01*
X87944000Y-85344000D02*
X87944000Y-86674000D01*
X87944000Y-84074000D02*
X85284000Y-84074000D01*
X85284000Y-84074000D02*
X85284000Y-66234000D01*
X87944000Y-84074000D02*
X87944000Y-66234000D01*
X87944000Y-66234000D02*
X85284000Y-66234000D01*
%TO.C,J3*%
X91634000Y-55432000D02*
X91634000Y-54102000D01*
X92964000Y-55432000D02*
X91634000Y-55432000D01*
X94234000Y-55432000D02*
X94234000Y-52772000D01*
X94234000Y-52772000D02*
X112074000Y-52772000D01*
X94234000Y-55432000D02*
X112074000Y-55432000D01*
X112074000Y-55432000D02*
X112074000Y-52772000D01*
%TO.C,R24*%
X94641641Y-94613000D02*
X94334359Y-94613000D01*
X94641641Y-95373000D02*
X94334359Y-95373000D01*
%TO.C,R23*%
X94641641Y-86234000D02*
X94334359Y-86234000D01*
X94641641Y-86994000D02*
X94334359Y-86994000D01*
%TO.C,R22*%
X97181641Y-94613000D02*
X96874359Y-94613000D01*
X97181641Y-95373000D02*
X96874359Y-95373000D01*
%TO.C,R21*%
X97181641Y-86234000D02*
X96874359Y-86234000D01*
X97181641Y-86994000D02*
X96874359Y-86994000D01*
%TO.C,R20*%
X99721641Y-94613000D02*
X99414359Y-94613000D01*
X99721641Y-95373000D02*
X99414359Y-95373000D01*
%TO.C,R19*%
X99721641Y-86234000D02*
X99414359Y-86234000D01*
X99721641Y-86994000D02*
X99414359Y-86994000D01*
%TO.C,R18*%
X102261641Y-94613000D02*
X101954359Y-94613000D01*
X102261641Y-95373000D02*
X101954359Y-95373000D01*
%TO.C,R17*%
X102261641Y-86234000D02*
X101954359Y-86234000D01*
X102261641Y-86994000D02*
X101954359Y-86994000D01*
%TO.C,R16*%
X104801641Y-94613000D02*
X104494359Y-94613000D01*
X104801641Y-95373000D02*
X104494359Y-95373000D01*
%TO.C,R15*%
X104801641Y-86234000D02*
X104494359Y-86234000D01*
X104801641Y-86994000D02*
X104494359Y-86994000D01*
%TO.C,SW2*%
X111084000Y-64566000D02*
X111084000Y-64466000D01*
X115484000Y-62966000D02*
X111084000Y-62966000D01*
X111084000Y-66066000D02*
X115484000Y-66066000D01*
X115484000Y-64566000D02*
X115484000Y-64466000D01*
%TO.C,J2*%
X159366000Y-79764000D02*
X158366000Y-80264000D01*
X159366000Y-80764000D02*
X159366000Y-79764000D01*
X158366000Y-80264000D02*
X159366000Y-80764000D01*
X156666000Y-73134000D02*
X157976000Y-73134000D01*
X156666000Y-73134000D02*
X156666000Y-73134000D01*
X156666000Y-66194000D02*
X156666000Y-73134000D01*
X150166000Y-66194000D02*
X156666000Y-66194000D01*
X150166000Y-84174000D02*
X150166000Y-66194000D01*
X156666000Y-84174000D02*
X150166000Y-84174000D01*
X156666000Y-77234000D02*
X156666000Y-84174000D01*
X157976000Y-77234000D02*
X156666000Y-77234000D01*
X157976000Y-64894000D02*
X157976000Y-85474000D01*
X148856000Y-64894000D02*
X157976000Y-64894000D01*
X148856000Y-85474000D02*
X148856000Y-64894000D01*
X157976000Y-85474000D02*
X148856000Y-85474000D01*
%TO.C,F2*%
X123900000Y-61472578D02*
X123900000Y-60955422D01*
X122480000Y-61472578D02*
X122480000Y-60955422D01*
%TO.C,F1*%
X144632000Y-84741936D02*
X144632000Y-85946064D01*
X146452000Y-84741936D02*
X146452000Y-85946064D01*
%TO.C,Y1*%
X112744000Y-67692000D02*
X108744000Y-67692000D01*
X112744000Y-70992000D02*
X112744000Y-67692000D01*
%TO.C,U5*%
X95250000Y-83546000D02*
X98700000Y-83546000D01*
X95250000Y-83546000D02*
X93300000Y-83546000D01*
X95250000Y-73426000D02*
X97200000Y-73426000D01*
X95250000Y-73426000D02*
X93300000Y-73426000D01*
%TO.C,U4*%
X91714000Y-63246000D02*
X91714000Y-66696000D01*
X91714000Y-63246000D02*
X91714000Y-61296000D01*
X101834000Y-63246000D02*
X101834000Y-65196000D01*
X101834000Y-63246000D02*
X101834000Y-61296000D01*
D10*
%TO.C,U3*%
X126703000Y-87645000D02*
X125303000Y-87645000D01*
X126703000Y-92745000D02*
X130853000Y-92745000D01*
X126703000Y-87595000D02*
X130853000Y-87595000D01*
X126703000Y-92745000D02*
X126703000Y-92600000D01*
X130853000Y-92745000D02*
X130853000Y-92600000D01*
X130853000Y-87595000D02*
X130853000Y-87740000D01*
X126703000Y-87595000D02*
X126703000Y-87645000D01*
D11*
%TO.C,U2*%
X113904000Y-74622000D02*
X113904000Y-73332000D01*
X114354000Y-74622000D02*
X113904000Y-74622000D01*
X114354000Y-75072000D02*
X114354000Y-74622000D01*
X114354000Y-81842000D02*
X113904000Y-81842000D01*
X114354000Y-81392000D02*
X114354000Y-81842000D01*
X107134000Y-74622000D02*
X107584000Y-74622000D01*
X107134000Y-75072000D02*
X107134000Y-74622000D01*
X107134000Y-81842000D02*
X107584000Y-81842000D01*
X107134000Y-81392000D02*
X107134000Y-81842000D01*
%TO.C,U1*%
X145353000Y-89007000D02*
X141903000Y-89007000D01*
X145353000Y-89007000D02*
X147303000Y-89007000D01*
X145353000Y-94127000D02*
X143403000Y-94127000D01*
X145353000Y-94127000D02*
X147303000Y-94127000D01*
%TO.C,TP3*%
X125790000Y-82490000D02*
X125790000Y-83820000D01*
X124460000Y-82490000D02*
X125790000Y-82490000D01*
X123190000Y-82490000D02*
X123190000Y-85150000D01*
X123190000Y-85150000D02*
X123130000Y-85150000D01*
X123190000Y-82490000D02*
X123130000Y-82490000D01*
X123130000Y-82490000D02*
X123130000Y-85150000D01*
%TO.C,TP2*%
X132274000Y-95698000D02*
X133604000Y-95698000D01*
X132274000Y-97028000D02*
X132274000Y-95698000D01*
X132274000Y-98298000D02*
X134934000Y-98298000D01*
X134934000Y-98298000D02*
X134934000Y-98358000D01*
X132274000Y-98298000D02*
X132274000Y-98358000D01*
X132274000Y-98358000D02*
X134934000Y-98358000D01*
%TO.C,TP1*%
X136846000Y-95698000D02*
X138176000Y-95698000D01*
X136846000Y-97028000D02*
X136846000Y-95698000D01*
X136846000Y-98298000D02*
X139506000Y-98298000D01*
X139506000Y-98298000D02*
X139506000Y-98358000D01*
X136846000Y-98298000D02*
X136846000Y-98358000D01*
X136846000Y-98358000D02*
X139506000Y-98358000D01*
%TO.C,SW1*%
X119780000Y-50556000D02*
X119780000Y-50556000D01*
X118980000Y-50556000D02*
X119780000Y-50556000D01*
X118680000Y-50556000D02*
X118680000Y-50556000D01*
X118180000Y-50556000D02*
X118680000Y-50556000D01*
X120080000Y-50556000D02*
X120080000Y-50556000D01*
X120580000Y-50556000D02*
X120080000Y-50556000D01*
X121380000Y-51856000D02*
X121380000Y-51856000D01*
X121380000Y-51356000D02*
X121380000Y-51856000D01*
X117380000Y-51856000D02*
X117380000Y-51856000D01*
X117380000Y-51356000D02*
X117380000Y-51856000D01*
X117380000Y-51056000D02*
X117380000Y-51056000D01*
X117380000Y-50556000D02*
X117380000Y-51056000D01*
X117880000Y-50556000D02*
X117880000Y-50556000D01*
X117380000Y-50556000D02*
X117880000Y-50556000D01*
X120880000Y-50556000D02*
X120880000Y-50556000D01*
X121380000Y-50556000D02*
X120880000Y-50556000D01*
X121380000Y-51056000D02*
X121380000Y-51056000D01*
X121380000Y-50556000D02*
X121380000Y-51056000D01*
X123980000Y-52456000D02*
X123980000Y-52456000D01*
X122280000Y-52456000D02*
X123980000Y-52456000D01*
X122280000Y-52156000D02*
X122280000Y-52456000D01*
X121480000Y-52156000D02*
X122280000Y-52156000D01*
X121480000Y-52456000D02*
X121480000Y-52156000D01*
X119780000Y-52456000D02*
X121480000Y-52456000D01*
X119780000Y-52156000D02*
X119780000Y-52456000D01*
X118980000Y-52156000D02*
X119780000Y-52156000D01*
X118980000Y-52456000D02*
X118980000Y-52156000D01*
X117280000Y-52456000D02*
X118980000Y-52456000D01*
X117280000Y-52156000D02*
X117280000Y-52456000D01*
X116480000Y-52156000D02*
X117280000Y-52156000D01*
X116480000Y-52456000D02*
X116480000Y-52156000D01*
X114780000Y-52456000D02*
X116480000Y-52456000D01*
X121180000Y-56256000D02*
X121180000Y-56256000D01*
X120080000Y-56256000D02*
X121180000Y-56256000D01*
X118680000Y-56256000D02*
X118680000Y-56256000D01*
X117580000Y-56256000D02*
X118680000Y-56256000D01*
X123980000Y-56256000D02*
X122580000Y-56256000D01*
X123980000Y-52456000D02*
X123980000Y-56256000D01*
X114780000Y-56256000D02*
X114780000Y-52456000D01*
X116180000Y-56256000D02*
X114780000Y-56256000D01*
%TO.C,R14*%
X116714000Y-65632359D02*
X116714000Y-65939641D01*
X117474000Y-65632359D02*
X117474000Y-65939641D01*
%TO.C,R13*%
X129767000Y-79221064D02*
X129767000Y-78766936D01*
X128297000Y-79221064D02*
X128297000Y-78766936D01*
%TO.C,R12*%
X124078000Y-89053641D02*
X124078000Y-88746359D01*
X123318000Y-89053641D02*
X123318000Y-88746359D01*
%TO.C,R11*%
X124078000Y-91593641D02*
X124078000Y-91286359D01*
X123318000Y-91593641D02*
X123318000Y-91286359D01*
%TO.C,R10*%
X110338359Y-72516000D02*
X110645641Y-72516000D01*
X110338359Y-71756000D02*
X110645641Y-71756000D01*
%TO.C,R9*%
X119760000Y-61113641D02*
X119760000Y-60806359D01*
X119000000Y-61113641D02*
X119000000Y-60806359D01*
%TO.C,L2*%
X131312000Y-77310000D02*
X131312000Y-78460000D01*
X131312000Y-82710000D02*
X131312000Y-81560000D01*
X136912000Y-77310000D02*
X136912000Y-78460000D01*
X136912000Y-82710000D02*
X136912000Y-81560000D01*
X136912000Y-77310000D02*
X131312000Y-77310000D01*
X136912000Y-82710000D02*
X131312000Y-82710000D01*
%TO.C,L1*%
X105812000Y-72289800D02*
X105812000Y-72490200D01*
X106532000Y-72289800D02*
X106532000Y-72490200D01*
%TO.C,J5*%
X145588000Y-63616000D02*
X144988000Y-63616000D01*
X145288000Y-63016000D02*
X145588000Y-63616000D01*
X144988000Y-63616000D02*
X145288000Y-63016000D01*
X130798000Y-52096000D02*
X131048000Y-50596000D01*
X129298000Y-52096000D02*
X130798000Y-52096000D01*
X129048000Y-50596000D02*
X129298000Y-52096000D01*
X131048000Y-50596000D02*
X129048000Y-50596000D01*
X135878000Y-52096000D02*
X136128000Y-50596000D01*
X134378000Y-52096000D02*
X135878000Y-52096000D01*
X134128000Y-50596000D02*
X134378000Y-52096000D01*
X136128000Y-50596000D02*
X134128000Y-50596000D01*
X140958000Y-52096000D02*
X141208000Y-50596000D01*
X139458000Y-52096000D02*
X140958000Y-52096000D01*
X139208000Y-50596000D02*
X139458000Y-52096000D01*
X141208000Y-50596000D02*
X139208000Y-50596000D01*
X146038000Y-52096000D02*
X146288000Y-50596000D01*
X144538000Y-52096000D02*
X146038000Y-52096000D01*
X144288000Y-50596000D02*
X144538000Y-52096000D01*
X146288000Y-50596000D02*
X144288000Y-50596000D01*
X126398000Y-52096000D02*
X148938000Y-52096000D01*
X126398000Y-53896000D02*
X126398000Y-52096000D01*
X148938000Y-53896000D02*
X126398000Y-53896000D01*
X148938000Y-52096000D02*
X148938000Y-53896000D01*
X126398000Y-62816000D02*
X148938000Y-62816000D01*
X126398000Y-50596000D02*
X126398000Y-62816000D01*
X148938000Y-50596000D02*
X126398000Y-50596000D01*
X148938000Y-62816000D02*
X148938000Y-50596000D01*
%TO.C,J1*%
X113664000Y-93442000D02*
X113664000Y-92242000D01*
X119474000Y-99242000D02*
X119474000Y-97502000D01*
X112174000Y-99242000D02*
X119474000Y-99242000D01*
X112174000Y-97502000D02*
X112174000Y-99242000D01*
X119474000Y-93442000D02*
X119474000Y-94782000D01*
X117984000Y-93442000D02*
X119474000Y-93442000D01*
X112174000Y-93442000D02*
X112174000Y-94782000D01*
X113664000Y-93442000D02*
X112174000Y-93442000D01*
%TO.C,FB1*%
X139354779Y-86358000D02*
X139029221Y-86358000D01*
X139354779Y-87378000D02*
X139029221Y-87378000D01*
%TO.C,D9*%
X141350000Y-78642000D02*
X141350000Y-84042000D01*
X138050000Y-78642000D02*
X138050000Y-84042000D01*
X141350000Y-78642000D02*
X138050000Y-78642000D01*
%TO.C,D8*%
X138723000Y-74649000D02*
X141008000Y-74649000D01*
X138723000Y-73179000D02*
X138723000Y-74649000D01*
X141008000Y-73179000D02*
X138723000Y-73179000D01*
%TO.C,D7*%
X138723000Y-72871000D02*
X141008000Y-72871000D01*
X138723000Y-71401000D02*
X138723000Y-72871000D01*
X141008000Y-71401000D02*
X138723000Y-71401000D01*
%TO.C,D6*%
X138723000Y-76427000D02*
X141008000Y-76427000D01*
X138723000Y-74957000D02*
X138723000Y-76427000D01*
X141008000Y-74957000D02*
X138723000Y-74957000D01*
%TO.C,D5*%
X124446500Y-78005000D02*
X122161500Y-78005000D01*
X124446500Y-79475000D02*
X124446500Y-78005000D01*
X122161500Y-79475000D02*
X124446500Y-79475000D01*
%TO.C,D4*%
X141693000Y-66067000D02*
X139408000Y-66067000D01*
X141693000Y-67537000D02*
X141693000Y-66067000D01*
X139408000Y-67537000D02*
X141693000Y-67537000D01*
%TO.C,D3*%
X141693000Y-67845000D02*
X139408000Y-67845000D01*
X141693000Y-69315000D02*
X141693000Y-67845000D01*
X139408000Y-69315000D02*
X141693000Y-69315000D01*
%TO.C,D2*%
X124446500Y-79783000D02*
X122161500Y-79783000D01*
X124446500Y-81253000D02*
X124446500Y-79783000D01*
X122161500Y-81253000D02*
X124446500Y-81253000D01*
%TO.C,D1*%
X138723000Y-71093000D02*
X141008000Y-71093000D01*
X138723000Y-69623000D02*
X138723000Y-71093000D01*
X141008000Y-69623000D02*
X138723000Y-69623000D01*
%TO.C,C14*%
X109326000Y-64595836D02*
X109326000Y-64380164D01*
X108606000Y-64595836D02*
X108606000Y-64380164D01*
%TO.C,C13*%
X119351000Y-66973000D02*
X119351000Y-68223000D01*
X118726000Y-67598000D02*
X119976000Y-67598000D01*
X120216000Y-74553563D02*
X121280437Y-75618000D01*
X120216000Y-66162437D02*
X121280437Y-65098000D01*
X120216000Y-66162437D02*
X120216000Y-68848000D01*
X120216000Y-74553563D02*
X120216000Y-71868000D01*
X121280437Y-75618000D02*
X130736000Y-75618000D01*
X121280437Y-65098000D02*
X130736000Y-65098000D01*
X130736000Y-65098000D02*
X130736000Y-68848000D01*
X130736000Y-75618000D02*
X130736000Y-71868000D01*
%TO.C,C12*%
X128388164Y-86720000D02*
X128603836Y-86720000D01*
X128388164Y-86000000D02*
X128603836Y-86000000D01*
%TO.C,C10*%
X108096164Y-72496000D02*
X108311836Y-72496000D01*
X108096164Y-71776000D02*
X108311836Y-71776000D01*
%TO.C,C9*%
X116762000Y-75358164D02*
X116762000Y-75573836D01*
X117482000Y-75358164D02*
X117482000Y-75573836D01*
%TO.C,C8*%
X141330000Y-91547836D02*
X141330000Y-91332164D01*
X140610000Y-91547836D02*
X140610000Y-91332164D01*
%TO.C,C7*%
X114407836Y-83968000D02*
X114192164Y-83968000D01*
X114407836Y-84688000D02*
X114192164Y-84688000D01*
%TO.C,C6*%
X106532000Y-69929836D02*
X106532000Y-69714164D01*
X105812000Y-69929836D02*
X105812000Y-69714164D01*
%TO.C,C5*%
X113938164Y-72496000D02*
X114153836Y-72496000D01*
X113938164Y-71776000D02*
X114153836Y-71776000D01*
%TO.C,C4*%
X104500000Y-81415836D02*
X104500000Y-81200164D01*
X103780000Y-81415836D02*
X103780000Y-81200164D01*
%TO.C,C3*%
X114152000Y-69957836D02*
X114152000Y-69742164D01*
X113432000Y-69957836D02*
X113432000Y-69742164D01*
%TO.C,C2*%
X134472000Y-89712748D02*
X134472000Y-91135252D01*
X136292000Y-89712748D02*
X136292000Y-91135252D01*
%TO.C,C1*%
X138028000Y-89712748D02*
X138028000Y-91135252D01*
X139848000Y-89712748D02*
X139848000Y-91135252D01*
%TD*%
M02*
